%YAML 1.1
%TAG !u! tag:unity3d.com,2011:
--- !u!1045 &1
EditorBuildSettings:
  m_ObjectHideFlags: 0
  serializedVersion: 2
  m_Scenes:
  - enabled: 1
    path: Assets/Scenes/MainMenu.unity
    guid: 6688b89614729c948ba5bf1891a0483c
  - enabled: 1
    path: Assets/Scenes/Lobby.unity
    guid: 993edf287d2fcf543991df177497fe15
  - enabled: 1
    path: Assets/Scenes/Game.unity
    guid: ef211547d7a2d7546b2fcd41e5f4ff39
  m_configObjects: {}
